<?xml version="1.0" encoding="UTF-8"?>
<session version="1.0">
<refactoring comment="Rename resource &apos;i2ctmp006_MSP_EXP432P401R_TI_MSP432P401R&apos; to &apos;Quadcopter&apos;" description="Rename resource &apos;i2ctmp006_MSP_EXP432P401R_TI_MSP432P401R&apos;" flags="7" id="org.eclipse.ltk.core.refactoring.rename.resource" input="/i2ctmp006_MSP_EXP432P401R_TI_MSP432P401R" name="Quadcopter" stamp="1471833970829" updateReferences="true"/>
</session>