<?xml version="1.0" encoding="UTF-8"?>
<session version="1.0">
<refactoring comment="Rename resource &apos;Quadcopter_RX/rfEasyLinkRx.c&apos; to &apos;QuadcopterRx.c&apos;" description="Rename resource &apos;rfEasyLinkRx.c&apos;" flags="7" id="org.eclipse.ltk.core.refactoring.rename.resource" input="rfEasyLinkRx.c" name="QuadcopterRx.c" stamp="1474225808412" updateReferences="true"/>
</session>